,miles,price,name,year
0,106507,18387,2016 Honda Pilot Touring,2016
1,56653,21495,2019 Honda Pilot LX,2019
2,132548,17495,2017 Honda Pilot EX-L,2017
3,67348,24998,2016 Honda Pilot EX-L,2016
4,10964,39998,2022 Honda Pilot Elite,2022
5,64199,21860,2017 Honda Pilot EX-L,2017
6,64202,25312,2019 Honda Pilot EX-L w/Navigation/RES,2019
7,14549,44995,2023 Honda Pilot Touring,2023
8,74818,32995,2021 Honda Pilot Elite,2021
9,39918,30989,2020 Honda Pilot Touring 8-Passenger,2020
10,29555,40507,2022 Honda Pilot Elite,2022
11,7795,39996,2023 Honda Pilot 2WD EX-L 7 Passenger,2023
12,7685,40999,2023 Honda Pilot AWD EX-L 7 Passenger,2023
13,42434,32700,2021 Honda Pilot Touring 8-Passenger,2021
14,141656,8995,2008 Honda Pilot EX,2008
15,20639,40991,2022 Honda Pilot Black Edition,2022
16,18043,33488,2021 Honda Pilot Special Edition,2021
17,122577,15398,2015 Honda Pilot Touring,2015
18,153942,15907,2017 Honda Pilot EX-L,2017
19,60823,29554,2021 Honda Pilot 2WD EX-L,2021
20,56876,28900,2020 Honda Pilot AWD EX-L,2020
21,94429,26390,2018 Honda Pilot Touring,2018
22,61044,33198,2020 Honda Pilot AWD Black Edition,2020
23,50686,26495,2017 Honda Pilot EX,2017
24,59656,24989,2021 Honda Pilot 2WD EX,2021
25,36217,30920,2021 Honda Pilot EX-L,2021
26,36709,29895,2021 Honda Pilot EX-L,2021
27,48714,30812,2019 Honda Pilot Touring 8-Passenger,2019
28,83180,26749,2021 Honda Pilot Special Edition,2021
29,76067,30128,2021 Honda Pilot Touring 8-Passenger,2021
30,131472,13498,2015 Honda Pilot EX-L,2015
31,33945,39499,2022 Honda Pilot Black Edition,2022
32,61983,22230,2018 Honda Pilot EX,2018
33,30156,29996,2022 Honda Pilot Sport,2022
34,33344,29998,2020 Honda Pilot EX-L,2020
35,50927,29898,2022 Honda Pilot Special Edition,2022
36,42336,33497,2022 Honda Pilot Touring 7-Passenger,2022
37,65439,29145,2019 Honda Pilot Touring 7-Passenger,2019
38,75484,20998,2018 Honda Pilot EX,2018
39,76879,24998,2018 Honda Pilot EX-L,2018
40,38205,35988,2022 Honda Pilot Touring 7-Passenger,2022
41,15186,45982,2023 Honda Pilot Touring,2023
42,24810,27750,2021 Honda Pilot EX,2021
43,18328,44000,2023 Honda Pilot TrailSport,2023
44,72128,25988,2019 Honda Pilot Touring 8-Passenger,2019
45,22369,33000,2019 Honda Pilot Touring 7-Passenger,2019
46,13814,36998,2022 Honda Pilot Special Edition,2022
47,29060,25998,2016 Honda Pilot EX,2016
48,40901,29500,2021 Honda Pilot EX-L,2021
49,32524,33998,2021 Honda Pilot Touring 8-Passenger,2021
50,75289,22901,2019 Honda Pilot EX-L,2019
51,78014,25792,2019 Honda Pilot Touring 8-Passenger,2019
52,78887,19695,2016 Honda Pilot EX-L w/ Navigation,2016
53,139555,15975,2016 Honda Pilot Touring,2016
54,34897,29931,2020 Honda Pilot EX-L,2020
55,42533,34470,2022 Honda Pilot TrailSport,2022
56,111820,17770,2015 Honda Pilot Touring,2015
57,165316,9995,2013 Honda Pilot Touring,2013
58,9016,41366,2023 Honda Pilot AWD EX-L 8 Passenger,2023
59,96392,21466,2018 Honda Pilot EX-L,2018
60,32421,31666,2021 Honda Pilot 2WD Special Edition,2021
61,36883,30266,2021 Honda Pilot 2WD EX-L,2021
62,8962,33990,2021 Honda Pilot Special Edition,2021
63,2569,40790,2024 Honda Pilot EX-L,2024
64,62833,34497,2022 Honda Pilot Touring 8-Passenger,2022
65,828,51984,2024 Honda Pilot Elite,2024
66,22471,34408,2022 Honda Pilot Special Edition,2022
67,27383,41497,2022 Honda Pilot Elite,2022
68,18740,32699,2022 Honda Pilot Sport,2022
69,267,46497,2024 Honda Pilot Touring,2024
70,12480,32850,2022 Honda Pilot Sport,2022
71,23995,35998,2022 Honda Pilot TrailSport,2022
72,26468,27998,2020 Honda Pilot LX,2020
73,78341,23504,2017 Honda Pilot EX-L,2017
74,103243,18499,2017 Honda Pilot EX-L,2017
75,34814,29997,2020 Honda Pilot EX-L AWD,2020
76,34906,31699,2022 Honda Pilot Sport,2022
77,73997,27995,2019 Honda Pilot Touring 7-Passenger,2019
78,60882,30695,2021 Honda Pilot 2WD Special Edition,2021
79,4090,45888,2024 Honda Pilot Touring 8-Passenger,2024
80,22805,35288,2021 Honda Pilot Touring 8-Passenger,2021
81,111887,19994,2017 Honda Pilot Touring,2017
82,102768,24660,2019 Honda Pilot Touring 8-Passenger,2019
83,84568,21692,2016 Honda Pilot Touring,2016
84,57399,28449,2021 Honda Pilot Special Edition,2021
85,106507,18387,2016 Honda Pilot Touring,2016
86,88968,23997,2017 Honda Pilot Touring,2017
87,173238,11485,2014 Honda Pilot Touring,2014
88,24857,38272,2022 Honda Pilot Special Edition,2022
89,76456,23853,2020 Honda Pilot LX,2020
90,20188,33693,2022 Honda Pilot AWD Sport,2022
91,39537,31700,2022 Honda Pilot Sport,2022
92,20032,33200,2022 Honda Pilot Special Edition,2022
93,46953,32500,2021 Honda Pilot Touring 8-Passenger,2021
94,82501,29881,2019 Honda Pilot Elite,2019
95,3200,51454,2024 Honda Pilot Elite,2024
96,30623,32296,2022 Honda Pilot EX-L,2022
97,12176,39000,2022 Honda Pilot AWD Special Edition,2022
98,76710,25995,2019 Honda Pilot Touring 8-Passenger,2019
99,117685,10988,2012 Honda Pilot LX,2012
100,29684,44900,2022 Honda Pilot Black Edition,2022
0,43031,31995,2021 Honda Pilot 2WD Special Edition,2021
1,179626,11484,2014 Honda Pilot Touring,2014
2,69113,10999,2007 Honda Pilot EX,2007
3,61271,26981,2020 Honda Pilot 2WD EX-L,2020
4,135115,18977,2015 Honda Pilot EX-L,2015
5,94754,20968,2016 Honda Pilot EX-L,2016
6,58837,25991,2021 Honda Pilot EX,2021
7,31996,35977,2022 Honda Pilot Special Edition,2022
8,52116,30661,2021 Honda Pilot Special Edition,2021
9,26268,35990,2023 Honda Pilot EX-L 8-Passenger,2023
10,26017,30500,2022 Honda Pilot EX-L,2022
11,71297,32994,2021 Honda Pilot AWD Elite,2021
12,26536,33998,2022 Honda Pilot Special Edition,2022
13,58790,25789,2020 Honda Pilot 2WD EX-L,2020
14,69361,24879,2020 Honda Pilot 2WD EX-L,2020
15,90342,14500,2014 Honda Pilot LX,2014
16,46354,32991,2020 Honda Pilot Touring 8-Passenger,2020
17,64841,30991,2021 Honda Pilot 2WD Special Edition,2021
18,47058,29000,2019 Honda Pilot Touring 8-Passenger,2019
19,25065,31481,2022 Honda Pilot EX-L,2022
20,102293,21995,2019 Honda Pilot EX-L,2019
21,44874,31249,2021 Honda Pilot Special Edition,2021
22,4795,45445,2024 Honda Pilot Touring,2024
23,39796,34104,2022 Honda Pilot TrailSport,2022
24,29980,33487,2021 Honda Pilot EX-L,2021
25,71598,26013,2019 Honda Pilot EX-L,2019
26,88500,25995,2019 Honda Pilot Touring 8-Passenger,2019
27,7060,45612,2024 Honda Pilot TrailSport,2024
28,116542,18057,2017 Honda Pilot EX-L,2017
29,93223,23699,2017 Honda Pilot Touring,2017
30,10620,36980,2023 Honda Pilot LX,2023
31,62784,32900,2021 Honda Pilot Touring 7-Passenger,2021
32,66570,21995,2017 Honda Pilot Elite,2017
33,52627,28579,2019 Honda Pilot Touring 8-Passenger,2019
34,102805,24988,2017 Honda Pilot Elite,2017
35,185828,10500,2011 Honda Pilot Touring,2011
36,55510,23999,2018 Honda Pilot EX-L,2018
37,17342,33998,2021 Honda Pilot EX-L,2021
38,95526,21998,2017 Honda Pilot EX-L,2017
39,75720,33105,2021 Honda Pilot Touring 7-Passenger,2021
40,46886,31990,2021 Honda Pilot Special Edition,2021
41,78047,24445,2019 Honda Pilot EX-L,2019
42,45738,34444,2021 Honda Pilot Elite,2021
43,46358,26233,2021 Honda Pilot EX-L,2021
44,105763,19988,2016 Honda Pilot Touring,2016
45,98548,23999,2021 Honda Pilot EX,2021
46,136065,14995,2018 Honda Pilot EX-L,2018
47,48830,26817,2020 Honda Pilot EX-L,2020
48,90392,18950,2016 Honda Pilot EX-L w/ Navigation,2016
49,70185,24604,2019 Honda Pilot EX-L,2019
50,67940,31349,2021 Honda Pilot Special Edition,2021
51,17007,40558,2022 Honda Pilot Elite,2022
52,114225,18987,2017 Honda Pilot EX-L,2017
53,29989,33326,2021 Honda Pilot Special Edition,2021
54,52086,34439,2021 Honda Pilot Elite,2021
55,67862,25117,2019 Honda Pilot EX-L,2019
56,98285,20874,2017 Honda Pilot EX-L w/ Navigation,2017
57,90410,22991,2019 Honda Pilot Touring 8-Passenger,2019
58,13312,39500,2022 Honda Pilot TrailSport,2022
59,51555,31000,2022 Honda Pilot Special Edition,2022
60,35615,30900,2021 Honda Pilot EX-L,2021
61,52688,32500,2020 Honda Pilot Elite,2020
62,50532,31000,2021 Honda Pilot Special Edition,2021
63,16479,37200,2022 Honda Pilot Touring 7-Passenger,2022
64,8937,41500,2024 Honda Pilot EX-L 7-Passenger,2024
65,145000,13888,2016 Honda Pilot EX-L,2016
66,50532,23888,2018 Honda Pilot EX-L,2018
67,26722,34998,2020 Honda Pilot Touring 7-Passenger,2020
68,48042,30500,2021 Honda Pilot Special Edition,2021
69,44052,29000,2019 Honda Pilot Touring 7-Passenger,2019
70,119681,22396,2019 Honda Pilot EX-L,2019
71,100478,20888,2016 Honda Pilot Touring,2016
72,58376,28988,2019 Honda Pilot Touring 7-Passenger,2019
73,29051,35491,2022 Honda Pilot Touring 7-Passenger,2022
74,27786,31488,2021 Honda Pilot Touring 7-Passenger,2021
75,43669,29988,2021 Honda Pilot Special Edition,2021
76,153011,13499,2015 Honda Pilot EX-L,2015
77,112976,21992,2017 Honda Pilot Elite,2017
78,68801,22998,2019 Honda Pilot EX-L,2019
79,81881,20698,2016 Honda Pilot Touring,2016
80,15759,33566,2022 Honda Pilot AWD Sport,2022
81,166968,12166,2013 Honda Pilot Touring,2013
82,1068,46990,2024 Honda Pilot Touring,2024
83,67330,28155,2019 Honda Pilot Touring 7-Passenger,2019
84,22501,37456,2021 Honda Pilot Touring 7-Passenger,2021
85,34045,33653,2022 Honda Pilot Special Edition,2022
86,16755,30849,2020 Honda Pilot EX-L,2020
87,68295,33700,2022 Honda Pilot Touring 8-Passenger,2022
88,10529,35661,2023 Honda Pilot 2WD LX,2023
89,25179,25691,2021 Honda Pilot EX,2021
90,3747,44500,2024 Honda Pilot Touring,2024
91,3695,42500,2024 Honda Pilot EX-L,2024
92,109124,13963,2012 Honda Pilot EX-L,2012
93,45532,35605,2021 Honda Pilot Elite,2021
94,79738,27531,2021 Honda Pilot Special Edition,2021
95,77346,25500,2019 Honda Pilot Touring 8-Passenger,2019
96,41762,32836,2021 Honda Pilot Special Edition,2021
97,55549,25800,2020 Honda Pilot EX-L,2020
98,34143,34878,2022 Honda Pilot AWD Special Edition,2022
99,85278,24750,2019 Honda Pilot EX-L,2019
100,85665,20895,2016 Honda Pilot EX-L,2016
0,34814,29997,2020 Honda Pilot EX-L AWD,2020
1,100553,22998,2016 Honda Pilot Elite,2016
2,51613,25899,2021 Honda Pilot EX,2021
3,80449,20289,2016 Honda Pilot EX-L w/ Navigation,2016
4,72961,20805,2016 Honda Pilot EX-L,2016
5,38712,30999,2021 Honda Pilot Touring 8-Passenger,2021
6,38992,36998,2020 Honda Pilot Black Edition,2020
7,112987,7999,2005 Honda Pilot LX,2005
8,26187,34998,2022 Honda Pilot Special Edition,2022
9,65382,20693,2017 Honda Pilot EX,2017
10,60602,27955,2021 Honda Pilot EX-L,2021
11,68935,27000,2021 Honda Pilot 2WD EX-L,2021
12,79501,22510,2016 Honda Pilot EX-L,2016
13,64492,22491,2019 Honda Pilot LX,2019
14,37507,34491,2022 Honda Pilot Special Edition,2022
15,21754,34680,2021 Honda Pilot Special Edition,2021
16,33465,32758,2020 Honda Pilot Touring 8-Passenger,2020
17,90710,23998,2019 Honda Pilot EX-L,2019
18,54330,28695,2021 Honda Pilot 2WD Special Edition,2021
19,70198,25887,2021 Honda Pilot EX-L,2021
20,22547,40497,2022 Honda Pilot AWD Black Edition,2022
21,57622,31759,2021 Honda Pilot Touring 8-Passenger,2021
22,3742,42997,2024 Honda Pilot 2WD EX-L,2024
23,2495,42210,2024 Honda Pilot 2WD EX-L,2024
24,2045,42739,2024 Honda Pilot AWD EX-L,2024
25,2662,42246,2024 Honda Pilot 2WD EX-L 7 Passenger,2024
26,98624,20999,2017 Honda Pilot Touring,2017
27,3166,51767,2024 Honda Pilot AWD Elite,2024
28,132573,19681,2016 Honda Pilot Elite,2016
29,80175,26259,2019 Honda Pilot Touring 7-Passenger,2019
30,100568,24981,2020 Honda Pilot AWD EX-L,2020
31,4564,45982,2024 Honda Pilot Touring 8-Passenger,2024
32,46835,26998,2017 Honda Pilot Touring,2017
33,70410,23998,2016 Honda Pilot EX-L,2016
34,48621,25998,2020 Honda Pilot LX,2020
35,52908,25126,2018 Honda Pilot EX-L,2018
36,146782,14999,2013 Honda Pilot Touring,2013
37,88583,24998,2020 Honda Pilot AWD EX-L,2020
38,110835,16998,2015 Honda Pilot LX,2015
39,69455,27570,2021 Honda Pilot 2WD Special Edition,2021
40,45503,32000,2021 Honda Pilot Touring 8-Passenger,2021
41,23491,32000,2021 Honda Pilot AWD EX-L,2021
42,26084,32991,2021 Honda Pilot Special Edition,2021
43,50217,31000,2020 Honda Pilot Touring 8-Passenger,2020
44,54334,24971,2019 Honda Pilot EX,2019
45,179987,12988,2016 Honda Pilot EX,2016
46,10565,34549,2021 Honda Pilot EX-L,2021
47,113848,18494,2016 Honda Pilot Touring,2016
48,80439,27213,2020 Honda Pilot EX-L,2020
49,41915,31998,2021 Honda Pilot Special Edition,2021
50,36250,32998,2021 Honda Pilot Special Edition,2021
51,997,39448,2024 Honda Pilot EX-L 7-Passenger,2024
52,128907,18118,2016 Honda Pilot Touring,2016
53,245434,6492,2012 Honda Pilot Touring,2012
54,44999,34584,2021 Honda Pilot Elite,2021
55,100652,22777,2020 Honda Pilot EX-L,2020
56,148126,14996,2016 Honda Pilot Touring,2016
57,37543,31998,2022 Honda Pilot Special Edition,2022
58,1883,44623,2024 Honda Pilot AWD EX-L 7 Passenger,2024
59,97685,21984,2016 Honda Pilot Elite,2016
60,62366,27518,2021 Honda Pilot 2WD EX-L,2021
61,15014,45900,2023 Honda Pilot Touring,2023
62,120743,20000,2019 Honda Pilot EX,2019
63,51252,29950,2021 Honda Pilot Special Edition,2021
64,53829,21523,2016 Honda Pilot EX-L,2016
65,44582,31182,2022 Honda Pilot Sport,2022
66,55239,25999,2021 Honda Pilot EX,2021
67,110796,23108,2019 Honda Pilot EX-L,2019
68,63991,27222,2018 Honda Pilot EX-L,2018
69,12857,49000,2024 Honda Pilot AWD Elite,2024
70,62878,28401,2021 Honda Pilot 2WD Special Edition,2021
71,61208,36999,2022 Honda Pilot Black Edition,2022
72,91273,22898,2016 Honda Pilot Elite,2016
73,58994,27748,2017 Honda Pilot Touring,2017
74,47125,29439,2021 Honda Pilot EX-L,2021
75,56915,29433,2021 Honda Pilot EX-L,2021
76,194501,7650,2015 Honda Pilot EX,2015
77,108650,17950,2016 Honda Pilot EX-L,2016
78,3354,49700,2024 Honda Pilot TrailSport,2024
79,35677,24650,2018 Honda Pilot EX,2018
80,145895,12998,2015 Honda Pilot EX-L,2015
81,179926,12998,2016 Honda Pilot EX-L,2016
82,59488,24998,2016 Honda Pilot EX-L,2016
83,112969,19998,2016 Honda Pilot Touring,2016
84,68976,25794,2017 Honda Pilot Touring,2017
85,62702,24211,2019 Honda Pilot LX,2019
86,62815,28740,2021 Honda Pilot AWD Special Edition,2021
87,59262,30550,2019 Honda Pilot Touring 8-Passenger,2019
88,197816,8698,2011 Honda Pilot EX-L,2011
89,81751,22930,2016 Honda Pilot Touring,2016
90,84824,18400,2015 Honda Pilot EX-L,2015
91,85340,26756,2019 Honda Pilot Touring 8-Passenger,2019
92,65264,23795,2017 Honda Pilot EX-L,2017
93,33060,32000,2022 Honda Pilot Sport,2022
94,47356,32499,2020 Honda Pilot Touring 8-Passenger,2020
95,116717,18149,2017 Honda Pilot EX,2017
96,39076,30691,2021 Honda Pilot Special Edition,2021
97,63476,29491,2021 Honda Pilot 2WD Special Edition,2021
98,4027,47994,2023 Honda Pilot Elite,2023
99,17939,34138,2021 Honda Pilot EX-L,2021
100,33846,30423,2022 Honda Pilot Sport,2022
0,62702,24211,2019 Honda Pilot LX,2019
1,90408,28409,2019 Honda Pilot Elite,2019
2,57845,27408,2019 Honda Pilot Touring 8-Passenger,2019
3,80646,24963,2019 Honda Pilot Touring 7-Passenger,2019
4,59945,23998,2020 Honda Pilot EX,2020
5,89118,21100,2018 Honda Pilot Touring,2018
6,117230,21889,2018 Honda Pilot Elite,2018
7,75194,24998,2017 Honda Pilot EX-L,2017
8,63059,26495,2019 Honda Pilot EX-L,2019
9,126991,18995,2018 Honda Pilot EX-L,2018
10,124889,17995,2016 Honda Pilot Touring,2016
11,36353,33995,2022 Honda Pilot Touring 7-Passenger,2022
12,51156,28975,2020 Honda Pilot Touring 8-Passenger,2020
13,66677,31788,2021 Honda Pilot Elite,2021
14,89660,19999,2016 Honda Pilot EX-L w/ Navigation,2016
15,162716,10399,2012 Honda Pilot Touring,2012
16,97031,23276,2020 Honda Pilot LX,2020
17,28714,36840,2020 Honda Pilot Touring 8-Passenger,2020
18,99209,21900,2018 Honda Pilot EX-L,2018
19,39612,26491,2021 Honda Pilot EX,2021
20,93517,19998,2017 Honda Pilot LX,2017
21,66752,28998,2020 Honda Pilot EX-L,2020
22,106397,19680,2016 Honda Pilot Touring,2016
23,19591,32394,2022 Honda Pilot Sport,2022
24,78269,28398,2021 Honda Pilot Special Edition,2021
25,54952,31998,2021 Honda Pilot Touring 7-Passenger,2021
26,54878,25000,2021 Honda Pilot 2WD EX,2021
27,8089,48991,2024 Honda Pilot Touring 8-Passenger,2024
28,55784,29999,2021 Honda Pilot Special Edition,2021
29,77912,31600,2021 Honda Pilot Touring 8-Passenger,2021
30,29018,39149,2022 Honda Pilot AWD Elite,2022
31,3499,49699,2024 Honda Pilot AWD TrailSport,2024
32,96473,17995,2016 Honda Pilot EX-L,2016
33,85699,18395,2017 Honda Pilot EX,2017
34,41706,29414,2020 Honda Pilot EX-L,2020
35,97653,28991,2021 Honda Pilot Touring 7-Passenger,2021
36,53576,23911,2019 Honda Pilot EX,2019
37,109133,17950,2016 Honda Pilot EX-L,2016
38,64746,27500,2020 Honda Pilot EX-L w/Navigation/RES,2020
39,26911,39202,2022 Honda Pilot Elite,2022
40,5491,41457,2024 Honda Pilot EX-L 7-Passenger,2024
41,121045,17900,2018 Honda Pilot LX,2018
42,42211,29797,2021 Honda Pilot EX-L,2021
43,30486,39891,2022 Honda Pilot Black Edition,2022
44,72001,32995,2017 Honda Pilot EX-L,2017
45,16243,34298,2022 Honda Pilot AWD TrailSport,2022
46,96974,18780,2016 Honda Pilot Touring,2016
47,117234,10995,2011 Honda Pilot EX-L,2011
48,102500,19600,2019 Honda Pilot EX,2019
49,76640,27800,2021 Honda Pilot EX-L,2021
50,100271,22991,2017 Honda Pilot Elite,2017
51,110261,21500,2017 Honda Pilot EX-L,2017
52,45919,26998,2018 Honda Pilot EX-L,2018
53,36352,30998,2022 Honda Pilot Sport,2022
54,91787,24995,2017 Honda Pilot Elite,2017
55,64868,29997,2021 Honda Pilot Special Edition,2021
56,120835,20605,2018 Honda Pilot Touring,2018
57,12804,32951,2022 Honda Pilot 2WD Sport,2022
58,21477,38238,2023 Honda Pilot AWD Sport,2023
59,52755,24884,2019 Honda Pilot EX-L,2019
60,123033,18907,2018 Honda Pilot Touring,2018
61,19021,39998,2022 Honda Pilot Elite,2022
62,83636,17986,2015 Honda Pilot EX-L,2015
63,57353,24970,2017 Honda Pilot EX-L,2017
64,30007,36967,2021 Honda Pilot Elite,2021
65,17242,34071,2022 Honda Pilot 2WD Special Edition,2022
66,128879,17890,2017 Honda Pilot EX-L,2017
67,41865,29299,2021 Honda Pilot Special Edition,2021
68,114901,19896,2017 Honda Pilot EX-L,2017
69,14244,47500,2023 Honda Pilot Elite,2023
70,59296,29993,2021 Honda Pilot AWD EX-L,2021
71,58148,30505,2021 Honda Pilot Special Edition,2021
72,55510,31905,2020 Honda Pilot Touring 7-Passenger,2020
73,6325,53885,2023 Honda Pilot Elite,2023
74,55356,23997,2017 Honda Pilot EX-L,2017
75,42842,32291,2022 Honda Pilot EX-L,2022
76,78764,30880,2021 Honda Pilot Black Edition,2021
77,104694,18995,2019 Honda Pilot EX,2019
78,67610,24200,2018 Honda Pilot EX-L,2018
79,90108,23700,2018 Honda Pilot Elite,2018
80,121968,22500,2019 Honda Pilot EX-L w/Navigation/RES,2019
81,155525,10988,2012 Honda Pilot Touring,2012
82,137455,22495,2018 Honda Pilot Elite,2018
83,92619,27795,2021 Honda Pilot Touring 8-Passenger,2021
84,112344,25225,2019 Honda Pilot Touring 7-Passenger,2019
85,90365,22181,2017 Honda Pilot EX-L,2017
86,90347,23980,2019 Honda Pilot EX-L,2019
87,83240,29847,2021 Honda Pilot 2WD Special Edition,2021
88,62850,30395,2021 Honda Pilot Touring 7-Passenger,2021
89,132050,24895,2019 Honda Pilot Elite,2019
90,123251,20999,2017 Honda Pilot Touring,2017
91,61047,31183,2020 Honda Pilot AWD Black Edition,2020
92,9171,36584,2023 Honda Pilot LX,2023
93,73667,25700,2019 Honda Pilot EX-L,2019
94,54152,31500,2022 Honda Pilot Touring 7-Passenger,2022
95,4767,50000,2024 Honda Pilot Elite,2024
96,66517,31600,2020 Honda Pilot Touring 8-Passenger,2020
97,51828,32845,2021 Honda Pilot Touring 7-Passenger,2021
98,89098,20500,2017 Honda Pilot EX-L,2017
99,126235,13500,2013 Honda Pilot EX-L,2013
100,102046,17877,2015 Honda Pilot EX-L,2015
0,64779,29995,2021 Honda Pilot 2WD EX-L,2021
1,69563,26498,2019 Honda Pilot Touring 7-Passenger,2019
2,128819,13495,2013 Honda Pilot Touring,2013
3,19132,33458,2022 Honda Pilot Special Edition,2022
4,76379,26963,2020 Honda Pilot Touring 7-Passenger,2020
5,57303,28133,2022 Honda Pilot EX-L,2022
6,41833,31981,2021 Honda Pilot Touring 8-Passenger,2021
7,92027,22893,2021 Honda Pilot EX,2021
8,22356,40898,2022 Honda Pilot Elite,2022
9,67175,24397,2019 Honda Pilot EX-L,2019
10,59301,24562,2020 Honda Pilot LX,2020
11,57065,33380,2021 Honda Pilot Black Edition,2021
12,105698,16999,2014 Honda Pilot EX-L,2014
13,32311,35191,2022 Honda Pilot Touring 7-Passenger,2022
14,58263,33991,2022 Honda Pilot Elite,2022
15,62748,34206,2022 Honda Pilot Elite,2022
16,196433,7995,2011 Honda Pilot EX-L,2011
17,37455,30342,2020 Honda Pilot Touring 8-Passenger,2020
18,28856,33772,2022 Honda Pilot EX-L,2022
19,102963,21491,2018 Honda Pilot EX-L,2018
20,39231,34426,2021 Honda Pilot Touring 8-Passenger,2021
21,86204,21795,2014 Honda Pilot EX-L w/ Navigation,2014
22,40715,31987,2021 Honda Pilot AWD Special Edition,2021
23,54857,26990,2020 Honda Pilot EX,2020
24,66151,26990,2021 Honda Pilot EX-L,2021
25,796,39995,2024 Honda Pilot EX-L 7-Passenger,2024
26,4205,40916,2024 Honda Pilot EX-L,2024
27,172000,10250,2013 Honda Pilot EX-L,2013
28,118024,17490,2016 Honda Pilot EX-L,2016
29,82235,27988,2018 Honda Pilot Elite,2018
30,48565,29229,2019 Honda Pilot Touring 7-Passenger,2019
31,65071,29888,2021 Honda Pilot Special Edition,2021
32,121363,22995,2019 Honda Pilot Elite,2019
33,59639,28999,2020 Honda Pilot EXL 2WD,2020
34,6775,42799,2023 Honda Pilot TrailSport,2023
35,44001,30831,2021 Honda Pilot EX,2021
36,72788,26898,2021 Honda Pilot EX,2021
37,147411,16464,2016 Honda Pilot Touring,2016
38,167514,13599,2016 Honda Pilot EX-L,2016
39,45676,27295,2019 Honda Pilot EX,2019
40,60149,29496,2021 Honda Pilot Special Edition,2021
41,55474,28290,2019 Honda Pilot Touring 8-Passenger,2019
42,36853,33374,2022 Honda Pilot Special Edition,2022
43,82022,21000,2019 Honda Pilot EX,2019
44,53957,28800,2021 Honda Pilot EX-L,2021
45,113721,13461,2013 Honda Pilot Touring,2013
46,34121,33974,2021 Honda Pilot Touring 8-Passenger,2021
47,42259,32413,2022 Honda Pilot AWD EX-L,2022
48,16247,32935,2022 Honda Pilot AWD Sport,2022
49,104807,28816,2021 Honda Pilot Touring 8-Passenger,2021
50,85877,23195,2019 Honda Pilot EX-L,2019
51,21339,31000,2021 Honda Pilot 2WD EX-L,2021
52,58319,28950,2021 Honda Pilot Special Edition,2021
53,75818,20000,2018 Honda Pilot LX,2018
54,65229,29885,2022 Honda Pilot Special Edition,2022
55,57546,27998,2020 Honda Pilot EX-L,2020
56,10801,38500,2023 Honda Pilot Sport,2023
57,154027,12900,2018 Honda Pilot EX-L,2018
58,118248,19500,2018 Honda Pilot EX-L,2018
59,75182,27500,2018 Honda Pilot Elite,2018
60,28753,35500,2022 Honda Pilot Touring 8-Passenger,2022
61,64000,26900,2018 Honda Pilot EX-L,2018
62,89455,24821,2019 Honda Pilot EX-L,2019
63,142743,17811,2020 Honda Pilot Touring 8-Passenger,2020
64,27734,35711,2022 Honda Pilot Touring 7-Passenger,2022
65,26567,40447,2023 Honda Pilot EX-L 7-Passenger,2023
66,43982,29412,2021 Honda Pilot Special Edition,2021
67,99807,21991,2017 Honda Pilot EX-L w/ Navigation,2017
68,47794,34789,2021 Honda Pilot Touring 7-Passenger,2021
69,170954,9397,2011 Honda Pilot EX-L,2011
70,40389,27350,2018 Honda Pilot EX-L,2018
71,42746,33750,2021 Honda Pilot Touring 8-Passenger,2021
72,88303,24777,2019 Honda Pilot EX-L,2019
73,13891,40950,2023 Honda Pilot EX-L 8-Passenger,2023
74,26353,38991,2022 Honda Pilot Elite,2022
75,205734,5900,2009 Honda Pilot EX-L,2009
76,122826,15515,2015 Honda Pilot EX-L,2015
77,74493,32995,2021 Honda Pilot Black Edition,2021
78,106685,23500,2021 Honda Pilot EX,2021
79,52509,34775,2022 Honda Pilot Touring 7-Passenger,2022
80,80299,26986,2018 Honda Pilot EX-L,2018
81,145947,14250,2015 Honda Pilot Touring,2015
82,22886,31999,2021 Honda Pilot EX-L,2021
83,66372,28266,2022 Honda Pilot EX-L,2022
84,103596,25985,2021 Honda Pilot Special Edition,2021
85,226250,8500,2012 Honda Pilot Touring,2012
86,66602,29423,2021 Honda Pilot Special Edition,2021
87,55158,24000,2019 Honda Pilot EX,2019
88,55561,29767,2021 Honda Pilot 2WD EX-L,2021
89,53311,30390,2022 Honda Pilot Special Edition,2022
90,95034,21773,2017 Honda Pilot Touring,2017
91,120183,20998,2019 Honda Pilot Elite,2019
92,125806,15999,2017 Honda Pilot EX-L,2017
93,46463,29999,2018 Honda Pilot Elite,2018
94,28853,32291,2021 Honda Pilot Special Edition,2021
95,90756,22900,2020 Honda Pilot EX,2020
96,108551,26500,2021 Honda Pilot Special Edition,2021
97,35557,29000,2020 Honda Pilot EX-L,2020
98,24513,29996,2021 Honda Pilot Special Edition,2021
99,79603,22990,2019 Honda Pilot EX,2019
100,59762,32799,2022 Honda Pilot Touring 8-Passenger,2022
0,102963,21491,2018 Honda Pilot EX-L,2018
1,59307,28199,2021 Honda Pilot EX-L,2021
2,39636,32995,2020 Honda Pilot ,2020
3,28093,32125,2021 Honda Pilot EX-L,2021
4,86904,19964,2016 Honda Pilot EX-L,2016
5,33756,24999,2021 Honda Pilot Special Edition,2021
6,271254,2995,2005 Honda Pilot EX-L,2005
7,74091,27995,2021 Honda Pilot 2WD EX-L,2021
8,427,43498,2024 Honda Pilot Touring,2024
9,94055,18998,2017 Honda Pilot EX-L,2017
10,50218,25995,2017 Honda Pilot Touring,2017
11,69993,18995,2017 Honda Pilot LX,2017
12,177178,10352,2014 Honda Pilot EX-L,2014
13,6101,34339,2022 Honda Pilot Touring 7-Passenger,2022
14,29804,25995,2019 Honda Pilot Touring 8-Passenger,2019
15,61838,19995,2016 Honda Pilot EX,2016
16,96350,16988,2016 Honda Pilot EX-L,2016
17,25324,29200,2022 Honda Pilot AWD EX-L,2022
18,33674,26800,2022 Honda Pilot 2WD Special Edition,2022
19,10,43775,2024 Honda Pilot EX-L,2024
20,60736,32499,2020 Honda Pilot Elite,2020
21,1,50375,2024 Honda Pilot Touring,2024
22,10,48275,2024 Honda Pilot Touring,2024
23,10,42991,2024 Honda Pilot EX-L,2024
24,114510,18491,2016 Honda Pilot EX-L,2016
25,9654,48681,2023 Honda Pilot Elite,2023
26,111969,11691,2012 Honda Pilot EX-L,2012
27,165533,9999,2012 Honda Pilot EX-L,2012
28,167625,8999,2012 Honda Pilot EX-L,2012
29,39326,25874,2021 Honda Pilot EX,2021
30,193441,6998,2013 Honda Pilot EX-L,2013
31,13709,40978,2022 Honda Pilot Black Edition,2022
32,9491,49941,2024 Honda Pilot Elite,2024
33,8637,40000,2023 Honda Pilot Touring,2023
34,42153,27400,2020 Honda Pilot Elite,2020
35,17071,27700,2022 Honda Pilot EX-L,2022
36,10994,26600,2022 Honda Pilot Sport,2022
37,18910,29000,2022 Honda Pilot Sport,2022
38,39001,42488,2021 Honda Pilot ,2021
39,102,46208,2024 Honda Pilot Touring,2024
40,112680,20772,2016 Honda Pilot Elite,2016
41,17377,38476,2023 Honda Pilot Sport,2023
42,46729,26289,2021 Honda Pilot 2WD EX,2021
43,161105,22999,2020 Honda Pilot EX-L,2020
44,56529,28999,2021 Honda Pilot Special Edition,2021
45,29517,30487,2021 Honda Pilot EX-L,2021
46,55074,29632,2021 Honda Pilot Special Edition,2021
47,107114,22605,2017 Honda Pilot Touring,2017
48,5988,31300,2022 Honda Pilot ,2022
49,33299,29991,2020 Honda Pilot EX-L,2020
50,26799,31754,2021 Honda Pilot EX-L,2021
51,256354,3950,2006 Honda Pilot EX-L,2006
52,92564,20521,2017 Honda Pilot EX-L,2017
53,76273,24480,2017 Honda Pilot Touring,2017
54,163531,7495,2003 Honda Pilot EX-L,2003
55,81061,27897,2022 Honda Pilot EX-L,2022
56,20421,33061,2021 Honda Pilot EX-L,2021
57,121639,11800,2011 Honda Pilot EX-L,2011
58,27994,29995,2021 Honda Pilot EX,2021
59,125317,13981,2014 Honda Pilot EX-L,2014
60,60232,42488,2019 Honda Pilot Elite,2019
61,3811,35899,2022 Honda Pilot Sport,2022
62,154147,6990,2006 Honda Pilot EX,2006
63,11403,39890,2022 Honda Pilot Black Edition,2022
64,51639,27973,2022 Honda Pilot Sport,2022
65,94738,20995,2016 Honda Pilot Elite,2016
66,36700,34999,2020 Honda Pilot EX,2020
67,4404,44999,2024 Honda Pilot Touring,2024
68,97046,16339,2015 Honda Pilot EX-L w/ Navigation,2015
69,2294,46792,2024 Honda Pilot Touring,2024
70,33294,30566,2021 Honda Pilot 2WD EX-L,2021
71,44813,24966,2021 Honda Pilot 2WD LX,2021
72,68468,26999,2019 Honda Pilot Touring 8-Passenger,2019
73,40271,30795,2022 Honda Pilot Special Edition,2022
74,76629,26869,2020 Honda Pilot EX-L,2020
75,55999,29625,2021 Honda Pilot Special Edition,2021
76,47180,31784,2021 Honda Pilot Special Edition,2021
77,17470,33307,2022 Honda Pilot AWD Sport,2022
78,43946,34996,2022 Honda Pilot TrailSport,2022
79,21103,46000,2023 Honda Pilot Elite,2023
80,78324,18990,2014 Honda Pilot Touring,2014
81,62577,25000,2017 Honda Pilot EX-L,2017
82,11979,43500,2023 Honda Pilot Touring,2023
83,51473,27650,2020 Honda Pilot EX-L,2020
84,99907,13962,2015 Honda Pilot EX,2015
85,94672,20999,2017 Honda Pilot EX-L,2017
86,79838,25284,2021 Honda Pilot EX-L,2021
87,68044,26675,2019 Honda Pilot Touring 8-Passenger,2019
88,6722,42333,2023 Honda Pilot EX-L 7-Passenger,2023
89,75126,28002,2021 Honda Pilot Special Edition,2021
90,32054,37424,2021 Honda Pilot Black Edition,2021
91,161160,13998,2016 Honda Pilot EX-L,2016
92,55093,28788,2020 Honda Pilot AWD EX-L,2020
93,95279,21000,2017 Honda Pilot EX-L,2017
94,9681,39993,2022 Honda Pilot ,2022
95,115848,16998,2013 Honda Pilot EX,2013
96,111196,21134,2018 Honda Pilot ,2018
0,8089,48991,2024 Honda Pilot Touring 8-Passenger,2024
1,3200,42888,2024 Honda Pilot ,2024
2,67179,26991,2021 Honda Pilot EX-L,2021
3,84456,21991,2017 Honda Pilot Elite,2017
4,39,51598,2023 Honda Pilot Elite,2023
5,27737,31891,2021 Honda Pilot EX-L,2021
6,200000,6500,2006 Honda Pilot EX-L,2006
7,77167,23949,2020 Honda Pilot EX,2020
8,91429,23950,2017 Honda Pilot Elite,2017
9,74171,16125,2013 Honda Pilot Touring,2013
10,81520,22999,2017 Honda Pilot Touring,2017
11,401,42980,2023 Honda Pilot EX-L 8-Passenger,2023
12,69000,32000,2020 Honda Pilot Black Edition,2020
13,78698,17942,2017 Honda Pilot EX-L,2017
14,50830,30336,2021 Honda Pilot EX-L,2021
15,129761,18424,2016 Honda Pilot EX-L,2016
16,41648,30845,2021 Honda Pilot EX-L,2021
17,33456,34049,2021 Honda Pilot Special Edition,2021
18,30262,34983,2022 Honda Pilot Special Edition,2022
19,7938,34033,2022 Honda Pilot Sport,2022
20,123199,21500,2018 Honda Pilot Touring,2018
21,140000,12999,2012 Honda Pilot Touring,2012
22,159000,9999,2012 Honda Pilot EX-L,2012
23,38715,35291,2020 Honda Pilot Elite,2020
24,66423,27997,2019 Honda Pilot Touring 7-Passenger,2019
25,4390,51900,2024 Honda Pilot TrailSport,2024
26,84447,24523,2017 Honda Pilot Elite,2017
27,16795,36982,2022 Honda Pilot Special Edition,2022
28,75494,24955,2020 Honda Pilot EX-L,2020
29,46268,27375,2018 Honda Pilot Touring,2018
30,106829,21765,2017 Honda Pilot Elite,2017
31,19229,37871,2022 Honda Pilot Special Edition,2022
32,30337,36988,2022 Honda Pilot Touring 7-Passenger,2022
33,33024,25600,2019 Honda Pilot Touring 8-Passenger,2019
34,3049,41700,2023 Honda Pilot AWD Elite,2023
35,28599,24000,2021 Honda Pilot AWD EX,2021
36,10075,26700,2021 Honda Pilot 2WD EX-L,2021
37,72615,28991,2018 Honda Pilot Elite,2018
38,207,40991,2024 Honda Pilot LX,2024
39,96530,27988,2021 Honda Pilot Elite,2021
40,0,36988,2022 Honda Pilot Touring 7-Passenger,2022
41,62016,26588,2021 Honda Pilot EX,2021
42,60235,33588,2021 Honda Pilot Elite,2021
43,57432,30000,2022 Honda Pilot ,2022
44,28840,30863,2021 Honda Pilot 2WD EX-L,2021
45,26693,30990,2018 Honda Pilot Touring,2018
46,28143,31500,2022 Honda Pilot Special Edition,2022
47,20317,42100,2022 Honda Pilot Special Edition,2022
48,97483,23500,2019 Honda Pilot Touring 7-Passenger,2019
49,52333,31704,2020 Honda Pilot Elite,2020
50,41052,33995,2021 Honda Pilot ,2021
51,48950,26600,2022 Honda Pilot AWD EX-L,2022
52,50827,23500,2021 Honda Pilot 2WD EX-L,2021
53,135714,7490,2006 Honda Pilot EX-L,2006
54,55496,29997,2018 Honda Pilot EX-L,2018
55,51464,31291,2019 Honda Pilot Touring 8-Passenger,2019
56,15796,39831,2022 Honda Pilot Touring 7-Passenger,2022
57,35123,30999,2021 Honda Pilot EX-L,2021
58,39784,26999,2021 Honda Pilot EX,2021
59,137400,19898,2017 Honda Pilot Elite,2017
60,310000,2800,2009 Honda Pilot EX-L,2009
61,26916,39153,2022 Honda Pilot Elite,2022
62,78612,29979,2021 Honda Pilot Touring 8-Passenger,2021
63,57349,32612,2022 Honda Pilot Special Edition,2022
64,164158,9695,2011 Honda Pilot EX-L,2011
65,33439,31997,2021 Honda Pilot EX-L,2021
66,0,6900,2009 Honda Pilot EX-L,2009
67,65639,29147,2022 Honda Pilot Special Edition,2022
68,64883,23776,2017 Honda Pilot EX-L,2017
69,35265,35300,2022 Honda Pilot Special Edition,2022
70,30741,32990,2021 Honda Pilot Touring 7-Passenger,2021
71,26691,34379,2022 Honda Pilot Special Edition,2022
72,94822,14995,2013 Honda Pilot EX-L,2013
73,84126,17990,2017 Honda Pilot EX-L,2017
74,70615,16888,2016 Honda Pilot Touring,2016
75,12426,40000,2023 Honda Pilot Touring 8-Passenger,2023
76,10343,30800,2020 Honda Pilot AWD Black Edition,2020
77,46887,24000,2020 Honda Pilot AWD EX-L,2020
78,16403,31400,2022 Honda Pilot Touring 8-Passenger,2022
79,14711,28800,2022 Honda Pilot 2WD Special Edition,2022
80,34003,26000,2021 Honda Pilot 2WD Special Edition,2021
81,1714,41700,2023 Honda Pilot AWD Elite,2023
82,75092,30900,2021 Honda Pilot Touring 8-Passenger,2021
83,183617,9997,2004 Honda Pilot EX,2004
84,57277,31447,2021 Honda Pilot Touring 7-Passenger,2021
85,55762,28991,2020 Honda Pilot EX-L,2020
86,15183,35491,2021 Honda Pilot Touring 7-Passenger,2021
87,90263,19991,2016 Honda Pilot EX-L,2016
88,53735,28988,2021 Honda Pilot EX-L,2021
89,119290,14991,2014 Honda Pilot EX-L,2014
90,14147,39991,2023 Honda Pilot Sport,2023
91,168889,9995,2012 Honda Pilot EX-L,2012
0,62577,25000,2017 Honda Pilot EX-L,2017
1,69960,27992,2022 Honda Pilot EX-L,2022
2,64779,29995,2021 Honda Pilot 2WD EX-L,2021
3,43031,31995,2021 Honda Pilot 2WD Special Edition,2021
4,46945,26601,2017 Honda Pilot Touring,2017
5,46944,27900,2017 Honda Pilot Touring,2017
6,72082,25000,2020 Honda Pilot EX-L,2020
7,86408,22990,2017 Honda Pilot Elite,2017
8,77741,25312,2019 Honda Pilot EX-L,2019
9,26670,48695,2023 Honda Pilot ,2023
10,15398,33997,2022 Honda Pilot EX-L,2022
11,46367,28999,2020 Honda Pilot LX,2020
12,51672,35498,2022 Honda Pilot Touring 7-Passenger,2022
13,104902,18995,2017 Honda Pilot EX-L,2017
14,104762,23660,2017 Honda Pilot Elite,2017
15,34293,35655,2022 Honda Pilot ,2022
16,203111,6384,2006 Honda Pilot EX-L,2006
17,89748,20846,2016 Honda Pilot EX-L,2016
18,50426,34985,2022 Honda Pilot AWD TrailSport,2022
19,63947,25988,2019 Honda Pilot EX-L,2019
20,98842,25206,2022 Honda Pilot 2WD EX-L,2022
21,48361,31986,2022 Honda Pilot 2WD Special Edition,2022
22,80208,21531,2017 Honda Pilot EX-L,2017
23,89465,5995,2006 Honda Pilot EX,2006
24,28106,29500,2021 Honda Pilot EX-L,2021
25,15,41500,2024 Honda Pilot EX-L,2024
26,91987,20900,2016 Honda Pilot Touring,2016
27,111506,16695,2018 Honda Pilot EX,2018
28,64428,29800,2021 Honda Pilot EX-L,2021
29,16063,48499,2023 Honda Pilot Elite,2023
30,39875,27755,2021 Honda Pilot EX,2021
31,94655,21770,2017 Honda Pilot EX-L,2017
32,65796,25970,2019 Honda Pilot EX-L,2019
33,32348,39995,2022 Honda Pilot Elite,2022
34,82259,22918,2018 Honda Pilot EX-L,2018
35,33192,30000,2022 Honda Pilot 2WD EX-L,2022
36,197560,7888,2013 Honda Pilot EX-L,2013
37,101233,25000,2019 Honda Pilot Touring 8-Passenger,2019
38,24836,34888,2019 Honda Pilot Elite,2019
39,20323,33888,2022 Honda Pilot EX-L,2022
40,23559,35323,2022 Honda Pilot AWD TrailSport,2022
41,38996,30988,2019 Honda Pilot ,2019
42,26581,32991,2021 Honda Pilot EX-L,2021
43,64481,33284,2021 Honda Pilot Touring 8-Passenger,2021
44,159423,10241,2012 Honda Pilot EX-L,2012
45,192681,5795,2009 Honda Pilot EX-L,2009
46,43915,32535,2021 Honda Pilot Special Edition,2021
47,134291,18500,2018 Honda Pilot EX-L,2018
48,40773,25900,2017 Honda Pilot EX-L,2017
49,75815,25987,2019 Honda Pilot EX-L,2019
50,34862,32750,2021 Honda Pilot Special Edition,2021
51,78195,23785,2017 Honda Pilot Touring,2017
52,23580,26995,2022 Honda Pilot Special Edition,2022
53,80311,24725,2017 Honda Pilot Touring,2017
54,45648,30987,2021 Honda Pilot EX-L,2021
55,33036,34365,2022 Honda Pilot Special Edition,2022
56,32885,31955,2021 Honda Pilot ,2021
57,157219,13697,2015 Honda Pilot SE,2015
58,104453,24987,2019 Honda Pilot ,2019
59,91269,27995,2021 Honda Pilot AWD Special Edition,2021
60,97561,21995,2018 Honda Pilot EX-L,2018
61,229430,5997,2004 Honda Pilot EX-L,2004
62,47689,30988,2021 Honda Pilot Special Edition,2021
63,41960,28154,2020 Honda Pilot EX-L,2020
64,38500,36998,2021 Honda Pilot Touring 8-Passenger,2021
65,49619,22250,2018 Honda Pilot EX,2018
66,45778,29462,2021 Honda Pilot 2WD Special Edition,2021
67,97035,31988,2021 Honda Pilot Touring 7-Passenger,2021
68,35351,26500,2020 Honda Pilot AWD EX-L,2020
69,47772,33800,2022 Honda Pilot Special Edition,2022
70,57080,25982,2020 Honda Pilot EX,2020
71,2456,39990,2023 Honda Pilot EX-L 8-Passenger,2023
